{
    "result":0,
    "pagination":{
       "hasPreviousPage":false,
       "totalRecords":25,
       "previousPage":1,
       "directQuery":false,
       "nextPage":2,
       "currentPage":1,
       "endRecord":10,
       "pageRecords":10,
       "totalPages":3,
       "startRecord":0,
       "hasNextPage":true,
       "sortParams":null,
       "primaryKey":"id"
    },
    "infos":[
       {
          "id":null,
          "fileName":null,
          "channel":1,
          "position":"Broward, Florida, United States",
          "mediaType":0,
          "devIdno":"00007",
          "vehiIdno":"GZDU16-old_white_250",
          "remark":"",
          "updateTime":1594901761000,
          "label":"",
          "abbr":null,
          "fileType":0,
          "svrId":6,
          "alarmType":0,
          "videoFile":null,
          "violation":null,
          "gpsstatus":"3457|0|240|0|0|-80098624|26276596|0|244|25190|0|0|0|0|0|0|0|0|0|0|0|0|0|0|0|0|0|0",
          "fileTime":1594901722000,
          "fileTimeI":1594905322,
          "fileLocation":2,
          "encode":null,
          "sourceID":0,
          "fileUrl":null,
          "weiDu":26276596,
          "jingDu":-80098624,
          "filePath":"F:/gStorage/STOMEDIA/2020-07-16/20200716-000013_SS1.picfile",
          "fileOffset":142084222,
          "fileSize":33557,
          "downloadUrl":"https://vms.safe-tvigil.com/6611/3/5?Type=3&FLENGTH=33557&FOFFSET=142084222&FPATH=F%3A%2FgStorage%2FSTOMEDIA%2F2020-07-16%2F20200716-000013_SS1.picfile&MTYPE=1&SAVENAME=20200716-000013_SS1.picfile&jsession=e0f84db78c674e18967b56bc39e0ecaf",
          "alarmParam":0,
          "vehiId":14
       },
       {
          "id":null,
          "fileName":null,
          "channel":2,
          "position":"Broward, Florida, United States",
          "mediaType":0,
          "devIdno":"00007",
          "vehiIdno":"GZDU16-old_white_250",
          "remark":"",
          "updateTime":1594901790000,
          "label":"",
          "abbr":null,
          "fileType":0,
          "svrId":6,
          "alarmType":0,
          "videoFile":null,
          "violation":null,
          "gpsstatus":"3457|0|240|0|0|-80098624|26276596|0|244|25190|0|0|0|0|0|0|0|0|0|0|0|0|0|0|0|0|0|0",
          "fileTime":1594901761000,
          "fileTimeI":1594905361,
          "fileLocation":2,
          "encode":null,
          "sourceID":0,
          "fileUrl":null,
          "weiDu":26276596,
          "jingDu":-80098624,
          "filePath":"F:/gStorage/STOMEDIA/2020-07-16/20200716-000013_SS1.picfile",
          "fileOffset":142117779,
          "fileSize":25008,
          "downloadUrl":"https://vms.safe-tvigil.com/6611/3/5?Type=3&FLENGTH=25008&FOFFSET=142117779&FPATH=F%3A%2FgStorage%2FSTOMEDIA%2F2020-07-16%2F20200716-000013_SS1.picfile&MTYPE=1&SAVENAME=20200716-000013_SS1.picfile&jsession=e0f84db78c674e18967b56bc39e0ecaf",
          "alarmParam":0,
          "vehiId":14
       },
       {
          "id":null,
          "fileName":null,
          "channel":3,
          "position":"Broward, Florida, United States",
          "mediaType":0,
          "devIdno":"00007",
          "vehiIdno":"GZDU16-old_white_250",
          "remark":"",
          "updateTime":1594901816000,
          "label":"",
          "abbr":null,
          "fileType":0,
          "svrId":6,
          "alarmType":0,
          "videoFile":null,
          "violation":null,
          "gpsstatus":"3457|0|240|0|0|-80098624|26276596|0|244|25190|0|0|0|0|0|0|0|0|0|0|0|0|0|0|0|0|0|0",
          "fileTime":1594901790000,
          "fileTimeI":1594905390,
          "fileLocation":2,
          "encode":null,
          "sourceID":0,
          "fileUrl":null,
          "weiDu":26276596,
          "jingDu":-80098624,
          "filePath":"F:/gStorage/STOMEDIA/2020-07-16/20200716-000013_SS1.picfile",
          "fileOffset":142697477,
          "fileSize":24339,
          "downloadUrl":"https://vms.safe-tvigil.com/6611/3/5?Type=3&FLENGTH=24339&FOFFSET=142697477&FPATH=F%3A%2FgStorage%2FSTOMEDIA%2F2020-07-16%2F20200716-000013_SS1.picfile&MTYPE=1&SAVENAME=20200716-000013_SS1.picfile&jsession=e0f84db78c674e18967b56bc39e0ecaf",
          "alarmParam":0,
          "vehiId":14
       },
       {
          "id":null,
          "fileName":null,
          "channel":4,
          "position":"Broward, Florida, United States",
          "mediaType":0,
          "devIdno":"00007",
          "vehiIdno":"GZDU16-old_white_250",
          "remark":"",
          "updateTime":1594901851000,
          "label":"",
          "abbr":null,
          "fileType":0,
          "svrId":6,
          "alarmType":0,
          "videoFile":null,
          "violation":null,
          "gpsstatus":"3457|0|240|0|0|-80098624|26276596|0|244|25190|0|0|0|0|0|0|0|0|0|0|0|0|0|0|0|0|0|0",
          "fileTime":1594901816000,
          "fileTimeI":1594905416,
          "fileLocation":2,
          "encode":null,
          "sourceID":0,
          "fileUrl":null,
          "weiDu":26276596,
          "jingDu":-80098624,
          "filePath":"F:/gStorage/STOMEDIA/2020-07-16/20200716-000013_SS1.picfile",
          "fileOffset":143394328,
          "fileSize":32741,
          "downloadUrl":"https://vms.safe-tvigil.com/6611/3/5?Type=3&FLENGTH=32741&FOFFSET=143394328&FPATH=F%3A%2FgStorage%2FSTOMEDIA%2F2020-07-16%2F20200716-000013_SS1.picfile&MTYPE=1&SAVENAME=20200716-000013_SS1.picfile&jsession=e0f84db78c674e18967b56bc39e0ecaf",
          "alarmParam":0,
          "vehiId":14
       },
       {
          "id":null,
          "fileName":null,
          "channel":2,
          "position":"Broward, Florida, United States",
          "mediaType":0,
          "devIdno":"00007",
          "vehiIdno":"GZDU16-old_white_250",
          "remark":"",
          "updateTime":1594902642000,
          "label":"",
          "abbr":null,
          "fileType":0,
          "svrId":6,
          "alarmType":0,
          "videoFile":null,
          "violation":null,
          "gpsstatus":"3457|0|240|0|0|-80098624|26276596|0|244|25190|0|0|0|0|0|0|0|0|0|0|0|0|0|0|0|0|0|0",
          "fileTime":1594902613000,
          "fileTimeI":1594906213,
          "fileLocation":2,
          "encode":null,
          "sourceID":0,
          "fileUrl":null,
          "weiDu":26276596,
          "jingDu":-80098624,
          "filePath":"F:/gStorage/STOMEDIA/2020-07-16/20200716-000013_SS1.picfile",
          "fileOffset":151276601,
          "fileSize":23922,
          "downloadUrl":"https://vms.safe-tvigil.com/6611/3/5?Type=3&FLENGTH=23922&FOFFSET=151276601&FPATH=F%3A%2FgStorage%2FSTOMEDIA%2F2020-07-16%2F20200716-000013_SS1.picfile&MTYPE=1&SAVENAME=20200716-000013_SS1.picfile&jsession=e0f84db78c674e18967b56bc39e0ecaf",
          "alarmParam":0,
          "vehiId":14
       },
       {
          "id":null,
          "fileName":null,
          "channel":3,
          "position":"Broward, Florida, United States",
          "mediaType":0,
          "devIdno":"00007",
          "vehiIdno":"GZDU16-old_white_250",
          "remark":"",
          "updateTime":1594902668000,
          "label":"",
          "abbr":null,
          "fileType":0,
          "svrId":6,
          "alarmType":0,
          "videoFile":null,
          "violation":null,
          "gpsstatus":"3457|0|240|0|0|-80098624|26276596|0|244|25190|0|0|0|0|0|0|0|0|0|0|0|0|0|0|0|0|0|0",
          "fileTime":1594902642000,
          "fileTimeI":1594906242,
          "fileLocation":2,
          "encode":null,
          "sourceID":0,
          "fileUrl":null,
          "weiDu":26276596,
          "jingDu":-80098624,
          "filePath":"F:/gStorage/STOMEDIA/2020-07-16/20200716-000013_SS1.picfile",
          "fileOffset":151300523,
          "fileSize":25341,
          "downloadUrl":"https://vms.safe-tvigil.com/6611/3/5?Type=3&FLENGTH=25341&FOFFSET=151300523&FPATH=F%3A%2FgStorage%2FSTOMEDIA%2F2020-07-16%2F20200716-000013_SS1.picfile&MTYPE=1&SAVENAME=20200716-000013_SS1.picfile&jsession=e0f84db78c674e18967b56bc39e0ecaf",
          "alarmParam":0,
          "vehiId":14
       },
       {
          "id":null,
          "fileName":null,
          "channel":4,
          "position":"Broward, Florida, United States",
          "mediaType":0,
          "devIdno":"00007",
          "vehiIdno":"GZDU16-old_white_250",
          "remark":"",
          "updateTime":1594902710000,
          "label":"",
          "abbr":null,
          "fileType":0,
          "svrId":6,
          "alarmType":0,
          "videoFile":null,
          "violation":null,
          "gpsstatus":"3457|0|240|0|0|-80098624|26276596|0|244|25190|0|0|0|0|0|0|0|0|0|0|0|0|0|0|0|0|0|0",
          "fileTime":1594902668000,
          "fileTimeI":1594906268,
          "fileLocation":2,
          "encode":null,
          "sourceID":0,
          "fileUrl":null,
          "weiDu":26276596,
          "jingDu":-80098624,
          "filePath":"F:/gStorage/STOMEDIA/2020-07-16/20200716-000013_SS1.picfile",
          "fileOffset":151714726,
          "fileSize":38359,
          "downloadUrl":"https://vms.safe-tvigil.com/6611/3/5?Type=3&FLENGTH=38359&FOFFSET=151714726&FPATH=F%3A%2FgStorage%2FSTOMEDIA%2F2020-07-16%2F20200716-000013_SS1.picfile&MTYPE=1&SAVENAME=20200716-000013_SS1.picfile&jsession=e0f84db78c674e18967b56bc39e0ecaf",
          "alarmParam":0,
          "vehiId":14
       },
       {
          "id":null,
          "fileName":null,
          "channel":1,
          "position":"Broward, Florida, United States",
          "mediaType":0,
          "devIdno":"00007",
          "vehiIdno":"GZDU16-old_white_250",
          "remark":"",
          "updateTime":1594903470000,
          "label":"",
          "abbr":null,
          "fileType":0,
          "svrId":6,
          "alarmType":0,
          "videoFile":null,
          "violation":null,
          "gpsstatus":"3457|0|240|0|0|-80098624|26276596|0|244|25190|0|0|0|0|0|0|0|0|0|0|0|0|0|0|0|0|0|0",
          "fileTime":1594903436000,
          "fileTimeI":1594907036,
          "fileLocation":2,
          "encode":null,
          "sourceID":0,
          "fileUrl":null,
          "weiDu":26276596,
          "jingDu":-80098624,
          "filePath":"F:/gStorage/STOMEDIA/2020-07-16/20200716-000013_SS1.picfile",
          "fileOffset":159180299,
          "fileSize":43194,
          "downloadUrl":"https://vms.safe-tvigil.com/6611/3/5?Type=3&FLENGTH=43194&FOFFSET=159180299&FPATH=F%3A%2FgStorage%2FSTOMEDIA%2F2020-07-16%2F20200716-000013_SS1.picfile&MTYPE=1&SAVENAME=20200716-000013_SS1.picfile&jsession=e0f84db78c674e18967b56bc39e0ecaf",
          "alarmParam":0,
          "vehiId":14
       },
       {
          "id":null,
          "fileName":null,
          "channel":2,
          "position":"Broward, Florida, United States",
          "mediaType":0,
          "devIdno":"00007",
          "vehiIdno":"GZDU16-old_white_250",
          "remark":"",
          "updateTime":1594903489000,
          "label":"",
          "abbr":null,
          "fileType":0,
          "svrId":6,
          "alarmType":0,
          "videoFile":null,
          "violation":null,
          "gpsstatus":"3457|0|240|0|0|-80098624|26276596|0|244|25190|0|0|0|0|0|0|0|0|0|0|0|0|0|0|0|0|0|0",
          "fileTime":1594903470000,
          "fileTimeI":1594907070,
          "fileLocation":2,
          "encode":null,
          "sourceID":0,
          "fileUrl":null,
          "weiDu":26276596,
          "jingDu":-80098624,
          "filePath":"F:/gStorage/STOMEDIA/2020-07-16/20200716-000013_SS1.picfile",
          "fileOffset":159359115,
          "fileSize":21133,
          "downloadUrl":"https://vms.safe-tvigil.com/6611/3/5?Type=3&FLENGTH=21133&FOFFSET=159359115&FPATH=F%3A%2FgStorage%2FSTOMEDIA%2F2020-07-16%2F20200716-000013_SS1.picfile&MTYPE=1&SAVENAME=20200716-000013_SS1.picfile&jsession=e0f84db78c674e18967b56bc39e0ecaf",
          "alarmParam":0,
          "vehiId":14
       },
       {
          "id":null,
          "fileName":null,
          "channel":3,
          "position":"Broward, Florida, United States",
          "mediaType":0,
          "devIdno":"00007",
          "vehiIdno":"GZDU16-old_white_250",
          "remark":"",
          "updateTime":1594903514000,
          "label":"",
          "abbr":null,
          "fileType":0,
          "svrId":6,
          "alarmType":0,
          "videoFile":null,
          "violation":null,
          "gpsstatus":"3457|0|240|0|0|-80098624|26276596|0|244|25190|0|0|0|0|0|0|0|0|0|0|0|0|0|0|0|0|0|0",
          "fileTime":1594903489000,
          "fileTimeI":1594907089,
          "fileLocation":2,
          "encode":null,
          "sourceID":0,
          "fileUrl":null,
          "weiDu":26276596,
          "jingDu":-80098624,
          "filePath":"F:/gStorage/STOMEDIA/2020-07-16/20200716-000013_SS1.picfile",
          "fileOffset":159565424,
          "fileSize":26907,
          "downloadUrl":"https://vms.safe-tvigil.com/6611/3/5?Type=3&FLENGTH=26907&FOFFSET=159565424&FPATH=F%3A%2FgStorage%2FSTOMEDIA%2F2020-07-16%2F20200716-000013_SS1.picfile&MTYPE=1&SAVENAME=20200716-000013_SS1.picfile&jsession=e0f84db78c674e18967b56bc39e0ecaf",
          "alarmParam":0,
          "vehiId":14
       }
    ]
 }